node -version
node -c
cd desktop
cd /Users/ahmmuh/Desktop/react-native 
cd somalicash
react-native run-ios
/Users/ahmmuh/Desktop/AwesomeProject/node_modules/react-native/scripts/launchPackager.command ; exit;
/Users/ahmmuh/Desktop/AwesomeProject/node_modules/react-native/scripts/launchPackager.command ; exit;
/Users/ahmmuh/Desktop/AwesomeProject/node_modules/react-native/scripts/launchPackager.command ; exit;
cd desktop
cd /Users/ahmmuh/Desktop/AwesomeProject 
react-native run-ios
/Users/ahmmuh/Desktop/AwesomeProject/node_modules/react-native/scripts/launchPackager.command ; exit;
cd desktop
/Users/ahmmuh/Desktop/AwesomeProject 
cd /Users/ahmmuh/Desktop/AwesomeProject 
react-native run-ios
/Users/ahmmuh/Desktop/apps/somalicash/node_modules/react-native/scripts/launchPackager.command ; exit;
/Users/ahmmuh/Desktop/apps/somalicash/node_modules/react-native/scripts/launchPackager.command ; exit;
react-native init
cd somalicash
cd somalicash
brew install node
brew install watchman
npm install -g react-native-cli
sudo npm install -g react-native-cli
curl -0 -L https://npmjs.org/install.sh | sudo sh
react-native init somalicash
react-native run-android
cd somalicash
react-native run-android
cd somalicash
react-native run-ios
react-native run-ios
/Users/ahmmuh/somalicash/node_modules/react-native/scripts/launchPackager.command ; exit;
mkdir learn-react-native
cd learn-react-native
react-native init myapps
react-native run-ois
react-native run-ios
cd myapps 
react-native run-ios
/Users/ahmmuh/learn-react-native/myapps/node_modules/react-native/scripts/launchPackager.command ; exit;
cd desktop
cd /Users/ahmmuh/Dropbox/MessageApp/MessageApp 
pod init
pod init
cd /Users/ahmmuh/Dropbox/MessageApp/MessageApp.xcodeproj 
cd
cd MessageApp
cd MessageApp
/Users/ahmmuh/Dropbox/MessageApp/
cd desktop
/Users/ahmmuh/Dropbox/MessageApp/MessageApp 
cd /Users/ahmmuh/Dropbox/MessageApp/
pod init
pod install
pod install
pod install
pod install
pod install
pod install
pod deintegrate 
pod install
mkdir react-basicis
cd react-basicis
desktop cd
cd
desktop cd
mkdir react-toturial
mkdir react
cd react
npx create-react-app my-app
create-react-app react-toturial
cd react-toturial
yarn start
npm init
npm init
yarn init
npm install react react-dom --save
npm install react react-dom --save
yarn react react-dom --save
yarn install react react-dom --save
yarn add react react-dom
yarn add react react-dom --save
yarn add react react-dom --save
yarn add react react-dom --save
npm install webpack webpack-dev-server babel loader babel-preset-es 2015 babel-preset-reat babel-preset-stage2 --save-dev
yarn add install webpack webpack-dev-server babel loader babel-preset-es 2015 babel-preset-reat babel-preset-stage2 --save-dev
yarn add install webpack webpack-dev-server babel loader babel-preset-es 2015 babel-preset-react babel-preset-stage2 --save-dev
yarn add babel-stage-2
yarn add babel-preset-stage-2 --save-dev
yarn add install webpack webpack-dev-server babel-loader babel-preset-es 2015 babel-preset-react babel-preset-stage-2 --save-dev
npm install -g live-server
yarn add npm install -g live-server
yarn add es2015 --save-dev
npm start
yarn start
npm run
yarn run
yarn npm run
yarn run test
yarn run test -o --watch
npm start 
yarn start
yarn run env
npm start
yarn start
npm start
yarn start
npm install -g semver
yarn install -g semver
yarn global add semver
yarn start
npm start
yarn start
$ yarn global add create-react-app
yarn test
yarn jest
npm -v
install npm node
install npm
npm -v
cd desktop react.js
cd react.js
npm install 
cd desktop
npm install -g create-react-app
sudo npm install -g create-react-app
create-react-app singel-page
cd singel-page
npm start
cd singel-page
cd desktop
cd singel-page
npm init
cd desktop 
cd singel-page
npm start
cd desktop 
mkdir webpack-react-tutorial && cd webpack-react-tutorial
mkdir -p src
npm init -y
npm i webpack --save-dev
npm i webpack-cli --save-dev
npm i babel-loader babel-core babel-preset-env babel-preset-react --save-dev
npm i react react-dom --save-dev
mkdir -p src/js/components/{container,presentational}
cd desktop
cd mkdir learn-react
mkdir learn-reacy
cd learn-react
cd learn-react
cd learn-react
cd learn
cd desktop
mkdir learn-react
cd learn-reacy
cd learn-react
npm install -g create-react-app
sudo npm install -g create-react-app
create-react-app
create-react-app my-app
cd my-app
npm start
cd learn-react
cd learn-react
cd desktop
cd learn-react
npm init
npm star
npm start
yarn init
npm init
cd "/Users/ahmmuh/Desktop/javascript30/12 - Key Sequence Detection"
git push --set-upstream https://github.com/ahmmuh/12---Key-Sequence-Detection.git
npm init
clear
sudo npm install -g webpack
clear
npm install --save-dev babel.loader
clear
npm install --save-dev babel-loader
webpack
cd /Users/ahmmuh/Desktop/Ex_Files_UaR_ECMAScript6_Upd/Exercise\ Files/Ch02/02_02
webpack
npm install -D
npm install webpack
clear
webpack
npm install -D webpack
clear
webpack
npm install webpack cli
clear
npm install --save-dev webpack
cd "/Users/ahmmuh/Desktop/Ex_Files_UaR_ECMAScript6_Upd/Exercise Files/Ch02/02_02"
sudo npm install -g webpack
npm install --save-dev babel-loader
npm install --save-dev peer
npm install --save-dev babel-loader
cd "/Users/ahmmuh/Desktop/Ex_Files_UaR_ECMAScript6_Upd/Exercise Files/Ch02/02_02/start"
npm install --save-dev webpack
npm install --save-dev peer
npm install --save-dev babel-loader
cd "/Users/ahmmuh/Desktop/Ex_Files_UaR_ECMAScript6_Upd/Exercise Files/Ch02/02_02/start"
cd
npm init
sudo npm install webpack
clear
sudo npm install webpack
npm install --save-dev babel-loader
sudo npm install --save-dev babel-loader
clear
webpack
npm install -D
webpack
sudo npm install webpack-cli
webpack
sudo npm install --save-dev webpack-cli
webpack
clear
webpack
npm install webpack-cli
sudo npm install webpack
sudo npm install --save-dev peer
sudo npm install babel-loader
webpack
clear
npm install webpack
sudo npm install webpack
webpack
clear
cd desktop
cd /Users/ahmmuh/Desktop/Ex_Files_UaR_ECMAScript6_Upd/Exercise\ Files/Ch02/02_02/start 
clear
npm init
clear
npm init
clear
sudo npm install -g webpack
npm install --save-dev babel-loader
cd "/Users/ahmmuh/Desktop/learnES6"
cd "/Users/ahmmuh/Desktop/Ex_Files_UaR_ECMAScript6_Upd/Exercise Files/Ch02/02_02/start"
npm init
clear
sudo npm install .g webpack
sudo npm install -g webpack
npm install --save-dev babel-loader
cd "/Users/ahmmuh/Desktop/Ex_Files_UaR_ECMAScript6_Upd/Exercise Files/Ch02/02_02/start"
npm install babel-loader webpack --save-dev
npm run webpack
sudo npm install - webpack
webpack
npm install -g webpack-cli
cd "/Users/ahmmuh/Desktop/Ex_Files_UaR_ECMAScript6_Upd/Exercise Files/Ch02/02_02/start"
webpack
npm install webpack cli
clear
webpack
clear
npm init
clear
sudo npm install -g webpack
npm install --save-dev babel-loader
npm install --save-dev peer
webpack
clear
npm install --save-dev webpack
npm install --save-dev webpack-cli
cd "/Users/ahmmuh/Desktop/Ex_Files_UaR_ECMAScript6_Upd/Exercise Files/Ch02/02_02/start"
npm install babel-loader webpack --save-dev
npm init
npm run webpack
npm install babel-preset-es2015 --save-dev
npm install http-server --save-dev
 npm run babel
sudo  npm run babel
npm start
npm install -g webpack
clear
npm install --save-dev babel-loader
webpack
clear
npm install --save-dev webpack
npm install --save-dev peer
webpack
yarn install --save-dev webpack
yarn add webpack --dev
webopack
babel-core@5.8.29 --save-dev
babel-core@5.8.29 --save-dev
update babel
npm install babel-core --save-dev
babel-lodaer --save-dev 
npm install babel-loader --save-dev
npm install webpack@3.1.0 --save-dev
npm install babel-core@6.25.0 --save-dev
npm install babel-loader --save-dev
npm install babel-preset@1.6.0 --save-dev
clear
webpack
npm install -g webpack --save-dev
npm install -g webpack --save-dev
clear
cd "/Users/ahmmuh/Desktop/Ex_Files_UaR_ECMAScript6_Upd/Exercise Files/Ch02/02_02/start"
npm init
cd "/Users/ahmmuh/Desktop/Ex_Files_UaR_ECMAScript6_Upd/Exercise Files/Ch02/02_02/start"
npm uninstall
--global
npm uninstall -g webpack
npm uninstall -g webpack
npm uninstall -g webpack
npm uninstall -g webpack
clear
npm rem --save-dev webpack
npm remove --save-dev webpack
npm uninstall --save-dev webpack
cd "/Users/ahmmuh/Desktop/Ex_Files_UaR_ECMAScript6_Upd/Exercise Files/Ch02/02_02/start"
npm install --save-dev babel-loader
webpack
webpack
npm install --save-de webpack-cli
webpack
npm init
sudo npm install -g webpack
yes
mkdir webpack-demo && cd webpack-demo
cd desktop
/Users/ahmmuh/webpack-demo cd webpack-demo
ext install font-awesome-codes-html
cd desktop
cd /Users/ahmmuh/Dropbox/My\ Chat\ Application/My\ Chat\ Application 
pod install
cd "/Users/ahmmuh/Desktop/Ex_Files_Learning_Reactjs/Exercise Files/Ch02/02_01/start"
cd desktop
cd somaliface
somaliface
cd somaliface
cd /Users/ahmmuh/Dropbox/somaliface
ls
pod install
pod update
cd desktop
cd /Users/ahmmuh/Dropbox/somaliface/
pod install
vi podfile
cd desktop
cd /Users/ahmmuh/Dropbox/somaliface/
pod install
pod lisns
ls
pod install
pod install
pod install
clear
cd /Users/ahmmuh/Dropbox/somaliface/
cd desktop
cd /Users/ahmmuh/Dropbox/Anisa/Anisa 
pod init
cd pod init
pod init
cd desktop
cd /Users/ahmmuh/Dropbox/Anisa/Anisa 
pod init
pod init
clear
cd desk
cd desktop
cd /Users/ahmmuh/Dropbox/Anisa
pod init
 clear
pod init
pod install
clear
pod install
clea
clear
pod update
cd desktop
cd /Users/ahmmuh/Dropbox/swift-chatApp
pod install
clear
pod install
clear
pod install
clear
pod install
mkdir React-web-app
cd mkdir React-web-app
npm init react-app React-web-app
npm init react-app my-app
npm init react-app myweb
yarn create react-app my-app
cd my-app
yarn start
cd desktop
yarn create-react-app MywebApp
yarn create react-app MywebApp
clear
yarn create react-app MyApp
yarn create react-app myapp
yarn start myapp
cd myapp
yarn start
yarn add react-mdl
yarn add react-mdl
clear
yarn add react-router-dom
yarn add peer
cd desktop
create-react-app secondApp
create-react-app second
cd second
yarn start
yarn start
yarn start
yarn start
npm start
npm start
n
yarn start
cd desktop
cd /Users/ahmmuh/Desktop/myweb 
npm start
npm start
npm start
npm install -g @angular/cli
npm install -g @angular/cli
clear
npm install -g angular cli
npm install -g @angular/cli
yarn add  -g @angular/cli
yarn add  -g @angular/cli
npm init
npm start
npm install
cd desktop
/Users/ahmmuh/Desktop/angular 
/Users/ahmmuh/Desktop/angular angular2
cd /Users/ahmmuh/Desktop/angular/angular2 
git init
git remote add origin /Users/ahmmuh/Desktop/myweb/.git/
git remote add origin </Users/ahmmuh/Desktop/myweb/.git/>
clear
npm start
npm start
git commit -m "Website changes"
git commit
git add --all
cd PlaneringsApp 
git commit
cd desktop
/Users/ahmmuh/Desktop/PlaneringsApp 
cd /Users/ahmmuh/Desktop/PlaneringsApp 
git
cd ..
cd ..
cd ..
ls
cd ahmmuh/
ls
cd Documents/
ls
mkdir Projects
cd Projects/
ls
git clone git clone https://ahmmuh@bitbucket.org/xlentplanningboard/firstapp.git
git clone https://ahmmuh@bitbucket.org/xlentplanningboard/firstapp.git
git add -A
git init
ls
cd firstapp/
ls
git add -A
git commit -m "First commit."
git push
cd ..
ls
ls
rm .git
rm -f .git
git log
cd firstapp/
git log
$ npm install --save tui-calendar
$  --save tui-calendar
npm install --save tui-calendar
git commit -m
git commit -a
npm install --save tui-calendar
bower install tui-calendar
bower install tui-calendar
yarn add --save tui-calendar
npm install --save tui-calendar
yarn start
npm start
npm i -g npm
npm i -g npm
npm i -g npm
cd desktop
cd angular
sudo npm install -g angular-cli
sudo npm install @angular/core@5.2.3 --save
sudo npm install -g angular-cli
sudo npm install --save  angular-cli
start angular
clear
sudo install -g angular-cli
sudo npm install -g angular-cli
npm install node-sass
sudo npm install -g angular-cli
sudo npm -g node-sass@4.9.3 postinstall
npm -l
npm -i
sudo npm uninstall -g angular-cli
npm uninstall -g angular-cli
npm cache verify
