node --version
node --version
install npm
clear
node -v
npm v
clear
npm -v
git --version
npm install -g eslint
npm install eslint -g
clear
npm install eslint -g
,  
git --version
exit
/Users/ahmmuh/Dropbox/firebaseApps/
pod install
pod install
cd /Users/ahmmuh/Dropbox/firebaseApps/
pod install
ls
cd
/Users/ahmmuh/Dropbox/firebaseApps/
pod install
/Users/ahmmuh/Dropbox/LearnFirebase/LearnFirebase xclear
cd /Users/ahmmuh/Dropbox/LearnFirebase/
  pod 'Firebase/Databaclear
clear

clear
git --version
cd ~/Desktop
cd git glone 
cd ~/desktop
cd git clone https://github.com/ahmmuh/Learn-Javascript.git
git init
git remote add origin https://github.com/ahmmuh/JavaScript_01.git
git push -u origin master
git init
clear
git init
clear
git init
git commit -m "first commit"
git remote add origin https://github.com/ahmmuh/JavaScript_01.git
git init
git init
git remote add origin https://github.com/ahmmuh/javascript1.git
git push -u origin master
/Users/ahmmuh/Dropbox/Diiwaan/Diiwaan 
cd /Users/ahmmuh/Dropbox/Diiwaan/Diiwaan 
pod init
cd /Users/ahmmuh/Dropbox/Diiwaan
pod init
pod install
pod install
exit
node -version
node -v
cd desktop
cd reactToturial
/Users/ahmmuh/Desktop/reactTutorial 
cd /Users/ahmmuh/Desktop/reactTutorial 
npm install -g create-react-app
clear
create-react-app my-app
npm -g create-react
npm install -g create-react-app
clear
sudo npm install-g create-react-app
yes
cd reactTutorial
cd desktop
cd reactTutorial
sudo nmp install -g create-react-app
sudo npm install -g create-react-ap
clear
sudo npm install -g create-react-app
create-react-app singelPage
create-react-app singel
cd singel
npm start
