cd firstapp/
git log
$ npm install --save tui-calendar
$  --save tui-calendar
npm install --save tui-calendar
git commit -m
git commit -a
npm install --save tui-calendar
bower install tui-calendar
bower install tui-calendar
yarn add --save tui-calendar
npm install --save tui-calendar
yarn start
npm start
npm i -g npm
npm i -g npm
npm i -g npm
cd desktop
cd angular
sudo npm install -g angular-cli
sudo npm install @angular/core@5.2.3 --save
sudo npm install -g angular-cli
sudo npm install --save  angular-cli
start angular
clear
sudo install -g angular-cli
sudo npm install -g angular-cli
npm install node-sass
sudo npm install -g angular-cli
sudo npm -g node-sass@4.9.3 postinstall
npm -l
npm -i
sudo npm uninstall -g angular-cli
npm uninstall -g angular-cli
npm cache verify
  sudo npm cache clean -f
  sudo npm install -g n
  sudo n stable
sudo npm install angular-cli
npm audit fix
clear
sudo npm install --save angular-cli
install npm@latest -g
npm set audit false
sudo npm install --save react-cli
clear
node -v
sudo npm install -g angular-cli
npm set audit false
npm install npm set audit false
npm install -g angular-cli
npm install -g npm-install-peers
npm-install-peers
npm install peer
sudo npm install -g angular-cli
cd angular
cd desktoå
cd desktop
cd angular
ng new myApp
cd angular/myApp
cd myApp
ng serve
npm install -g angular-cli
npm delete  -g angular-cli
npm i -g npm
npm i -g npm
npm install -g @vue/cli
yarn global add @vue/cli
vue create vue-app
cd vue-app
yarn serve
cd desktop
vue init vuetifyjs/webpack-advanced myCalendar
yarn global add @vue/cli-init
vue init vuetifyjs/webpack-advanced myCalendar
vue init
$ npm install vuetify --save
 npm install vuetify --save
cd desktop
create-react-app
create-react-app react-calendar
yarn start
cd react-calendar
yarn start
cd desktop
cd create-react-app 
cd create-react-app  myReact
cd
create-react-app myCalendar
create-react-app
create-react-app myreact
cd myReact
yarn start
cd myreact
yarn build
cd desktop
cd /Users/ahmmuh/Desktop/react-calendar 
yarn start
clear
cd
create-react-app myNew
create-react-app react_calender
cd react-calendar
cd react-calender
cd react-calender
yarn start
cd react_calender
yarn start
cd /Users/ahmmuh/Desktop/react_calender 
yarn start
cd /Users/ahmmuh/Desktop/myweb 
yarn start
cd
cd /Users/ahmmuh/Desktop/myCalendar 
yarn start
cd /Users/ahmmuh/Desktop/myCalendar yarn start
yarn start
cd /Users/ahmmuh/Desktop/myCalendar 
yarn start
npm start
yarn start
yarn start
yarn add react-mdl
yarn add react-mdl
cd /Users/ahmmuh/Desktop/meeting_one 
yarn start
mkdir meeting
mkdir praktik
cd desktop
mkdir booking
cd desktop
cd
create-react-app
create-react-app booking
yarn start
cd booking
yarn start
yarn start
yarn build
yarn start
cd webApp
cd
cd webApp
cd
cd webApp
create-react-app mysite
cd mysite
yarn start
cd desktop
cd app
app/mysite
cd mysite
yarn add react-mdl
clear
yarn add react-mdl-datepicker
cd
cd mysite
cd mysite
cd booking
cd mysite
mysite
cd booking/mysite
mysite
cd app
cd desktop 
cd
cd app
cd app/mysite
cd /Users/ahmmuh/Desktop/app 
mysite
app/mysite
cd app/mysite
/Users/ahmmuh/Desktop/app/mysite 
cd /Users/ahmmuh/Desktop/app/mysite 
yarn add react-router-dom
yarn add dayz
yarn add moment
bower install --save moment
yarn add moment
yarn add react-date-picker
yarn add react-date-picker
/Users/ahmmuh/Desktop/app/mysite 
cd /Users/ahmmuh/Desktop/app/mysite 
yarn start
cd /Users/ahmmuh/Desktop/myweb 
yarn start
yarn start
cd
cd /Users/ahmmuh/Desktop/app/mysite 
yarn start
cd /Users/ahmmuh/Desktop/calendar 
cd
npm install -g firebase-tools
        npm install -g @google-cloud/functions-emulator
firebase init
firebase login
cd /Users/ahmmuh/Desktop/calendar 
firebase init
firebase init
firebase init
firebase use --add
firebase serve 
fir-apps-5a7b6.firebaseapp.com
firebase login
firebase init
firebase deploy
firebase serve
firebase deploy
firebase deploy
firebase deploy
npm install -g firebase-tools
npm install -g firebase-tools
firebase login
firebase init
firebase use --add
web
firebase serve
firebase deploy
cd firebase
cd desktop
cd firebase
cd
npm install -g firebase-tools
firebase serve
cd desktop
cd firebase
npm install -g firebase-tools
firebase login
firebase init
firebase deploy
firebase serve
npm install -g @angular/cli
ng new my-app
ng new angularApp
cd angularApp
ng serve --open
cd angularApp
ng serve --open
cd angularApp
ng serve --open
cd angularApp
ng serve --open
ls
cd ..
ls
cd angularApp/
ng serve
ng serve
cd desktop
cd Övningar
learnAngular
cd learnAngular
ng new angular1
cd angular 1
cd angular1
ng serve --open
clear
ng generate component heroes
npm install angular cli
ng serve --open
clear
ng serve --open
npm install angular-cli
ng seve --open
ng serve --open
ng serve
ng serve
ng serve
ng serve
cd desktop
cd Övningar 
cd angular2
cd angular2
angular2
learnAngular/angular2
learnANgular
cd learnAngular
cd angular2
npm install -g @angular/cli
cd angular2
ng serve --open
clear
cd
cd desktop
cd Övningar
ng new angular2
cd angular2
ng serve --open
clear
cd
cd desktop
cd Övningar
cd learnAngular
cd angular2
ng serve --open
$ npm install bootstrap@3 jquery --save
$ npm install bootstrap@3 jquery --save
$ npm install bootstrap@3 jquery --save
npm install bootstrap jquery --save
 npm install --save @ng-bootstrap/ng-bootstrap
npm install bootstrap@4.0.0-alpha.6
clear
npm install bootstrap@4.0.0-alpha.6
ng serve --open
cd desktop
cd Övningar/learnAngurla/angular2
cd Övningar
cd learnAngular
cd angular2
ng  serve --open
clear
cd övningar
cd Övningar
cd Övningar
..Övningar
cd
cd
cd desktop
cd Övningar
cd learnAngular3
cd learnAngular
ng new angular3
ng serve
cd angular3
ng serve
ng serve --open
clear
ng serve --open
cd desktop
cd Övningar
cd learnAngular
cd angular3
ng serve open
clear
ng serve --open
cd src/app/components
ng g component home
ng g component listings
ng g component navbar
ng g component addListing
ng g component listing
editListing
ng g editListing
clear
cd angular4
cd
cd src/app/components
cd
cd angular4
cd desktop
cd vvvvvvningar
cd desktop
cd lessons
cd learnAngular
cd angular4
cd src/app/components
ng g editListing
clear
cd src/app/components
ng g component editListing
ng serve
ng serve --open
cd desktop
cd Övningar 
cd learnAngular
cd
cd angular3
dir
cd angular3
cd Övningar
cd desktop
cd Övningar
cd learnAngular
cd angular3
ng serve --open
ng serve --open
ng serve --open
ng serve
ng serve
ng serve
npm start
ng serve
ng serve
ng serve
ng serve
ng serve
ng serve --open
ng serve
ng serve
npm start
ng serce
ng serve
clear
ng serve
ng serve
ng serve
ng serve
ng serve --open
cd
cd dekstop
cd desktop
cd övningar
cd learnAngular
cd angular3
ng serve --open
npm install --save angular-calendar
ng serve --open
commit 
ng serve
clear
code .
code .
code
ng serve
ng serve --open
npm install firebase angularfire2 --save
ng serve --open
clear
ng serve
clear
ng serve
ng serve
clear
ng serve
clear
ng serve
clear
ng serve
ng serve --open
yarn add @angular/material @angular/cdk @angular/animations
clear
ng serve --open
clear
cd desktop
c..
cd..
cd 
cd desktop
cd övningar
d learnAngular
cd learnAngular
ng new angular4
cd angular4
npm install firebase angularfire2 angular2-flash.messages --save
npm install firebase angularfire2 
npm install angular2-flash-messages 
clear
ng serve --open
cd..
cd ..
cd angular3
ng serve --open
ng serve --open
cd ..
angular3
cd angular3
ng serve --open
cd ..
cd angular4
ng serve --open
ng sere --open
ng serve --open
clear
ng serve --open
cd src/app/services
ng g servive firebase
clear
ng g service firebase
cd..
cd ..
cd ..
cd..
cd ..
ng serve --open
cd ..
cd angular3
ng serve --open
cd desktop
cd lessons
cd learnAngular
cd angular4
ng serve --open
clear
ng serve
clear
ng serve
ng serve --open
clear
ng serve 
cd ..
cd angular3
ng serve --open
cd ..
cd angular4
ng serve --open
clear
ng serve --open
clear
ng serve --open
cd desktop
cd learnAngular
cd learnAngular
cd lessons
cd learnAngular
cd angular4
ng serve --open
clear
ng serve --open
cd learnAngular
cd 
cd ..
cd desktop
cd desktop
cd
cd desktop
cd lessons
cd learnAnglar
cd learnAngular
cd angular3
ng serve --open
clear
cd
cd desktop
cd learnAngular
cd lessons
cd learnAngular
cd angular4
ng serve --open
ng serve --open
clear
ng serve --open
clea
clear
ng serve
ng serve --open
clearn
clear
ng serve --open
clear
ng serve --open
