node --version
node --version
install npm
clear
node -v
npm v
clear
npm -v
git --version
npm install -g eslint
npm install eslint -g
clear
npm install eslint -g
,  
git --version
exit
/Users/ahmmuh/Dropbox/firebaseApps/
pod install
pod install
cd /Users/ahmmuh/Dropbox/firebaseApps/
pod install
ls
cd
/Users/ahmmuh/Dropbox/firebaseApps/
pod install
/Users/ahmmuh/Dropbox/LearnFirebase/LearnFirebase xclear
cd /Users/ahmmuh/Dropbox/LearnFirebase/
  pod 'Firebase/Databaclear
clear

clear
git --version
cd ~/Desktop
cd git glone 
cd ~/desktop
cd git clone https://github.com/ahmmuh/Learn-Javascript.git
git init
git remote add origin https://github.com/ahmmuh/JavaScript_01.git
git push -u origin master
git init
clear
git init
clear
git init
git commit -m "first commit"
git remote add origin https://github.com/ahmmuh/JavaScript_01.git
git init
git init
git remote add origin https://github.com/ahmmuh/javascript1.git
git push -u origin master
/Users/ahmmuh/Dropbox/Diiwaan/Diiwaan 
cd /Users/ahmmuh/Dropbox/Diiwaan/Diiwaan 
pod init
cd /Users/ahmmuh/Dropbox/Diiwaan
pod init
pod install
pod install
exit
node -version
node -v
cd desktop
cd reactToturial
/Users/ahmmuh/Desktop/reactTutorial 
cd /Users/ahmmuh/Desktop/reactTutorial 
npm install -g create-react-app
clear
create-react-app my-app
npm -g create-react
npm install -g create-react-app
clear
sudo npm install-g create-react-app
yes
cd reactTutorial
cd desktop
cd reactTutorial
sudo nmp install -g create-react-app
sudo npm install -g create-react-ap
clear
sudo npm install -g create-react-app
create-react-app singelPage
create-react-app singel
cd singel
npm start
cd desktop
cd /Users/ahmmuh/Desktop/reactTutorial 
npm install gulp-sass --save-dev
npm install peer --save-dev
gulp -v
clear
create-react-app singel
cd singel
npm start
exit
cd desktop
cd /Users/ahmmuh/Dropbox/loginView/
pod install
pod init
pod install
pod install
pod install
pod 'Firebase/Core'
pod install
pod install
pod install
/Users/ahmmuh/Desktop/React-native 
cd desktop
cd /Users/ahmmuh/Desktop/React-native 
npm install - react-native-cli
npm install -g react-native-cli
clear
npm install -g yarn
sudo npm install -g yarn
react-native init somalicash
react-native init somalicash
clear
react-native init myapp
npm install -g create-react-native-app
npm install -g create-react-native-app
create-react-native-app
sudo react-native init myapp
cd desktop
/Users/ahmmuh/Desktop/React-native 
cd /Users/ahmmuh/Desktop/React-native 
react-native run-ios
sudo npm install -g react-native-cli
sudo npm update -g yarn
react-native start
npm install -g node
npm install -g node
clear
react-native start
cd somalicash 
react-native start
cd react-native
cd desktop
cd /Users/ahmmuh/Desktop/react-native 
cd somalicash 
react-native start
clear
npm uninstall -g react-native
sudo npm uninstall -g react-native
sudo npm install -g react-native-cli
npm install -g yarn
sudo npm install -g yarn
react-native init myapp
sudo apt-get update
npm install -g node
sudo npm install -g node
sudo update -g node
clear
node -version
node -c
cd desktop
cd /Users/ahmmuh/Desktop/react-native 
cd somalicash
react-native run-ios
/Users/ahmmuh/Desktop/AwesomeProject/node_modules/react-native/scripts/launchPackager.command ; exit;
/Users/ahmmuh/Desktop/AwesomeProject/node_modules/react-native/scripts/launchPackager.command ; exit;
/Users/ahmmuh/Desktop/AwesomeProject/node_modules/react-native/scripts/launchPackager.command ; exit;
cd desktop
cd /Users/ahmmuh/Desktop/AwesomeProject 
react-native run-ios
/Users/ahmmuh/Desktop/AwesomeProject/node_modules/react-native/scripts/launchPackager.command ; exit;
cd desktop
/Users/ahmmuh/Desktop/AwesomeProject 
cd /Users/ahmmuh/Desktop/AwesomeProject 
react-native run-ios
/Users/ahmmuh/Desktop/apps/somalicash/node_modules/react-native/scripts/launchPackager.command ; exit;
/Users/ahmmuh/Desktop/apps/somalicash/node_modules/react-native/scripts/launchPackager.command ; exit;
react-native init
cd somalicash
cd somalicash
brew install node
brew install watchman
npm install -g react-native-cli
sudo npm install -g react-native-cli
curl -0 -L https://npmjs.org/install.sh | sudo sh
react-native init somalicash
react-native run-android
cd somalicash
react-native run-android
cd somalicash
react-native run-ios
react-native run-ios
/Users/ahmmuh/somalicash/node_modules/react-native/scripts/launchPackager.command ; exit;
